{"photos":{"page":1,"pages":1911,"perpage":100,"total":191071,"photo":[{"id":"51941658428","owner":"53292075@N04","secret":"d8306ae4d0","server":"65535","farm":66,"title":"Cat and Mouse","ispublic":1,"isfriend":0,"isfamily":0},{"id":"51941886834","owner":"190050510@N08","secret":"064951f0f2","server":"65535","farm":66,"title":"Cat-Paw-Chair","ispublic":1,"isfriend":0,"isfamily":0},{"id":"51940557662","owner":"153352659@N03","secret":"73a50de75f","server":"65535","farm":66,"title":"A residential building damaged by an airstrike in Kharkiv on Tuesday","ispublic":1,"isfriend":0,"isfamily":0},{"id":"51942160490","owner":"194407751@N03","secret":"cac2b51d07","server":"65535","farm":66,"title":"Cat 5e patch cable | Datacomm Cables","ispublic":1,"isfriend":0,"isfamily":0},{"id":"51941546651","owner":"141786248@N02","secret":"bda8f38f71","server":"65535","farm":66,"title":"Sketch of Siamese Cat. Ballpoint pen only drawing by jmsw on thick card.","ispublic":1,"isfriend":0,"isfamily":0},{"id":"51941624878","owner":"76111143@N02","secret":"d5899ed25d","server":"65535","farm":66,"title":"Trobada d'Escoles de B\u00e0squet Barcelona (Barcelona) \/ B\u00e0squet CAT","ispublic":1,"isfriend":0,"isfamily":0},{"id":"51941534891","owner":"12198857@N00","secret":"4df82433a7","server":"65535","farm":66,"title":"Both are upset that we are using the table and chairs to eat dinner instead of whatever important cat things they had planned","ispublic":1,"isfriend":0,"isfamily":0},{"id":"51941777839","owner":"64968712@N00","secret":"fe805517f4","server":"65535","farm":66,"title":"Junior settling in","ispublic":1,"isfriend":0,"isfamily":0},{"id":"51940465767","owner":"64968712@N00","secret":"ce0fe34d14","server":"65535","farm":66,"title":"Junior settling in","ispublic":1,"isfriend":0,"isfamily":0},{"id":"51941457166","owner":"64968712@N00","secret":"5c2099f176","server":"65535","farm":66,"title":"Junior settling in","ispublic":1,"isfriend":0,"isfamily":0},{"id":"51941456946","owner":"64968712@N00","secret":"86c46239c3","server":"65535","farm":66,"title":"Junior settling in","ispublic":1,"isfriend":0,"isfamily":0},{"id":"51941592273","owner":"96739609@N00","secret":"ca49171dd8","server":"65535","farm":66,"title":"Fields and Trees","ispublic":1,"isfriend":0,"isfamily":0},{"id":"51942124210","owner":"194741130@N04","secret":"2d56a507b9","server":"65535","farm":66,"title":"Cat over the curtain","ispublic":1,"isfriend":0,"isfamily":0},{"id":"51941508501","owner":"190564862@N05","secret":"c828beb68e","server":"0","farm":0,"title":"Biggest Cat Poop Ever","ispublic":1,"isfriend":0,"isfamily":0},{"id":"51942123250","owner":"152799514@N07","secret":"52559dc512","server":"65535","farm":66,"title":"TANGO","ispublic":1,"isfriend":0,"isfamily":0},{"id":"51940516467","owner":"59647297@N00","secret":"c7c459119b","server":"65535","farm":66,"title":"Rutan the cat","ispublic":1,"isfriend":0,"isfamily":0},{"id":"51941571698","owner":"189230361@N03","secret":"f195ab05ae","server":"65535","farm":66,"title":"thorin","ispublic":1,"isfriend":0,"isfamily":0},{"id":"51941565693","owner":"151623206@N07","secret":"7bd785cf6d","server":"65535","farm":66,"title":"Filix The Cat","ispublic":1,"isfriend":0,"isfamily":0},{"id":"51942082870","owner":"26378284@N02","secret":"f6c5c0007a","server":"65535","farm":66,"title":"Neon Cat On the wall at @whobabysu ... always liked this cat. #gdphoto #art #red #cat #neon #neonsign #lineart #restaurant #signage #design #instagood #instadaily #italia #canberra #canberralife #cbr #visitcanberra #dining","ispublic":1,"isfriend":0,"isfamily":0},{"id":"51941462261","owner":"195041693@N05","secret":"c08c5486ca","server":"65535","farm":66,"title":"Febreze Air Effects Air Freshener","ispublic":1,"isfriend":0,"isfamily":0},{"id":"51941775164","owner":"195206844@N02","secret":"1f196fbefe","server":"65535","farm":66,"title":"Cats eye","ispublic":1,"isfriend":0,"isfamily":0},{"id":"51940461397","owner":"195041171@N05","secret":"dc3301024c","server":"65535","farm":66,"title":"L\u01b0u \u00fd khi c\u1eaft \u0111u\u00f4i ch\u00f3 ph\u1ed1c","ispublic":1,"isfriend":0,"isfamily":0},{"id":"51942067630","owner":"195041171@N05","secret":"2e920870c2","server":"65535","farm":66,"title":"C\u00e1ch c\u1eaft t\u1ec9a l\u00f4ng \u0111\u00fang c\u00e1ch cho ch\u00f3 poodle","ispublic":1,"isfriend":0,"isfamily":0},{"id":"51942057000","owner":"57937465@N00","secret":"f2284fdb5c","server":"65535","farm":66,"title":"Hemi","ispublic":1,"isfriend":0,"isfamily":0},{"id":"51941440621","owner":"190459481@N08","secret":"ab80bb1bae","server":"65535","farm":66,"title":"Genshin Impact: C\u1ed1t truy\u1ec7n V\u1ef1c \u0110\u00e1 S\u00e2u s\u1eafp t\u1edbi s\u1ebd h\u00e9 l\u1ed9 th\u00eam v\u1ec1 \u0110\u1ea3o Thi\u00ean Kh\u00f4ng v\u00e0 tr\u1eadn chi\u1ebfn Ma Th\u1ea7n","ispublic":1,"isfriend":0,"isfamily":0},{"id":"51941758509","owner":"28016424@N07","secret":"396cfa7423","server":"65535","farm":66,"title":"Precious moments (video short)","ispublic":1,"isfriend":0,"isfamily":0},{"id":"51942040805","owner":"84648023@N08","secret":"e5ef4c4b49","server":"65535","farm":66,"title":"Waiting In The Shadows","ispublic":1,"isfriend":0,"isfamily":0},{"id":"51942049620","owner":"195192389@N03","secret":"44d8b40872","server":"65535","farm":66,"title":"Vinhomes Wonder Park \u0110an Ph\u01b0\u1ee3ng","ispublic":1,"isfriend":0,"isfamily":0},{"id":"51941751294","owner":"193509316@N06","secret":"aa7c0f13e7","server":"65535","farm":66,"title":"Fairy Cats Of The Clean Tray","ispublic":1,"isfriend":0,"isfamily":0},{"id":"51941428501","owner":"187220021@N08","secret":"9a716371e4","server":"65535","farm":66,"title":"Spring....","ispublic":1,"isfriend":0,"isfamily":0},{"id":"51942029825","owner":"34428167@N05","secret":"bec1971d65","server":"65535","farm":66,"title":"Queen of Enkoyanai at Sunrise!","ispublic":1,"isfriend":0,"isfamily":0},{"id":"51940422767","owner":"27557369@N00","secret":"2631b48e06","server":"65535","farm":66,"title":"Tiger","ispublic":1,"isfriend":0,"isfamily":0},{"id":"51940421372","owner":"8070463@N03","secret":"459e01c0ea","server":"65535","farm":66,"title":"Julinka pacing in the snow II","ispublic":1,"isfriend":0,"isfamily":0},{"id":"51940418887","owner":"194786065@N04","secret":"8a43d213ea","server":"65535","farm":66,"title":"Huong-dan-cach-mai-luoi-cua-hop-kim","ispublic":1,"isfriend":0,"isfamily":0},{"id":"51941485158","owner":"147240527@N03","secret":"2993231efd","server":"65535","farm":66,"title":"I am the Sandstorm","ispublic":1,"isfriend":0,"isfamily":0},{"id":"51940408927","owner":"194216277@N07","secret":"95d7bf54a6","server":"65535","farm":66,"title":"5 Tips to make your Indoor Cat happy","ispublic":1,"isfriend":0,"isfamily":0},{"id":"51941396771","owner":"195148270@N06","secret":"230fe786a5","server":"65535","farm":66,"title":"Wholesale Silver Natural Golden Tourmaline Rutile Pendant","ispublic":1,"isfriend":0,"isfamily":0},{"id":"51941478413","owner":"194216277@N07","secret":"6865f44c0d","server":"65535","farm":66,"title":"Tricks to stop your cat from spilling water","ispublic":1,"isfriend":0,"isfamily":0},{"id":"51942007505","owner":"194939209@N03","secret":"1b93f6cc39","server":"65535","farm":66,"title":"Hubble","ispublic":1,"isfriend":0,"isfamily":0},{"id":"51941391246","owner":"194939209@N03","secret":"2a2389c71e","server":"65535","farm":66,"title":"Hubble","ispublic":1,"isfriend":0,"isfamily":0},{"id":"51942006030","owner":"189326743@N05","secret":"f4c63eb024","server":"65535","farm":66,"title":"1001 c\u00e2u stt ch\u1ea5t ng\u1ea7u \u0111\u1eddi c\u1ef1c \u0111\u1ed9c HOT HIT d\u00f9ng \u0111\u0103ng FB","ispublic":1,"isfriend":0,"isfamily":0},{"id":"51941978685","owner":"195068104@N02","secret":"7353915143","server":"65535","farm":66,"title":"t\u1ea3i english study pro 2012 full cr@ck - t\u1ef1 h\u1ecdc anh ng\u1eef t\u1eeb ch\u1ee7 \u0111\u1ea1o \u0111\u1ebfn n\u00e2ng t\u1ea7m hi\u1ec7u qu\u1ea3","ispublic":1,"isfriend":0,"isfamily":0},{"id":"51941682504","owner":"145402505@N06","secret":"75f7bf86f9","server":"65535","farm":66,"title":"I wonder .........","ispublic":1,"isfriend":0,"isfamily":0},{"id":"51941977465","owner":"192177833@N07","secret":"7cbbf5aa52","server":"65535","farm":66,"title":"Meow, let me fix the camera. #cats #catsofinstagram #cutecats #catstagram #mainecoon #catlover #instacat #instapet #CatLovesBest","ispublic":1,"isfriend":0,"isfamily":0},{"id":"51941439663","owner":"193160926@N06","secret":"658a270c2f","server":"65535","farm":66,"title":"Kitty Nose","ispublic":1,"isfriend":0,"isfamily":0},{"id":"51941429248","owner":"64968712@N00","secret":"8f8e4f0b4f","server":"65535","farm":66,"title":"George and Spider-Man","ispublic":1,"isfriend":0,"isfamily":0},{"id":"51941346021","owner":"64968712@N00","secret":"3fdcacb314","server":"65535","farm":66,"title":"New kitten on the scene","ispublic":1,"isfriend":0,"isfamily":0},{"id":"51940355622","owner":"64968712@N00","secret":"e8cfc9d23f","server":"65535","farm":66,"title":"New kitten on the scene","ispublic":1,"isfriend":0,"isfamily":0},{"id":"51941345866","owner":"64968712@N00","secret":"ec77cccd29","server":"65535","farm":66,"title":"New kitten on the scene","ispublic":1,"isfriend":0,"isfamily":0},{"id":"51941345791","owner":"64968712@N00","secret":"758088e76f","server":"65535","farm":66,"title":"New kitten on the scene","ispublic":1,"isfriend":0,"isfamily":0},{"id":"51941958560","owner":"192779884@N06","secret":"f434c7b1b2","server":"65535","farm":66,"title":"We are litter-ally the cutest! #cats #catsofinstagram #cutecats #catstagram #chartreux #catlover #instacat #instapet #CatLovesBest","ispublic":1,"isfriend":0,"isfamily":0},{"id":"51941340916","owner":"194247703@N03","secret":"417d3f6a23","server":"65535","farm":66,"title":"B\u00e1o Gi\u00e1 T\u00f4n Nh\u1ef1a 7 S\u00f3ng Ng\u00f3i L\u00e2m \u0110\u1ed3ng - Ng\u00f3i Nh\u1ef1a PVC ASA","ispublic":1,"isfriend":0,"isfamily":0},{"id":"51941955460","owner":"186536944@N06","secret":"0294505383","server":"65535","farm":66,"title":"INCREDIBLE THE CAT IN THE BACKPACK - PROMENADE DU CHAT DANS LE SAC A DOS","ispublic":1,"isfriend":0,"isfamily":0},{"id":"51941418718","owner":"195146491@N03","secret":"a63496a672","server":"65535","farm":66,"title":"#cat #umbrella #night #street #neon # #neon_city #picsart #","ispublic":1,"isfriend":0,"isfamily":0},{"id":"51941947510","owner":"153237179@N02","secret":"be9df42cab","server":"65535","farm":66,"title":"LOST brown & white w\/black stripes tabby cat #Dover since March 1 Contact 403-875-8009 if sighted\/found Pls RT, watch, share, help to locate KING Photos from Talia Calliou-Basque's postvpdescription by Photos from Talia Calliou-Basque's post LOST brown &","ispublic":1,"isfriend":0,"isfamily":0},{"id":"51941331061","owner":"153237179@N02","secret":"e14e4df154","server":"65535","farm":66,"title":"FOUND grey tabby cat in #foothills between Granary Road and 112 Street SW. Now with Calgary Humane Society. Call 403-723-6025 for more information: https:\/\/bit.ly\/2lprrFc If claiming must provide picture id & proof of ownership. Pls rt & share to find fam","ispublic":1,"isfriend":0,"isfamily":0},{"id":"51941947250","owner":"153237179@N02","secret":"e301114e03","server":"65535","farm":66,"title":"LOST dsh brown and cream cat in #taradale. If sighted or found CALL 403-983-2075 Pls rt share watch help find this kitty. A neighbor is looking for her cat in Taradale please let me know if you see or find it thank you A neighbor is looking for her cat in","ispublic":1,"isfriend":0,"isfamily":0},{"id":"51941653109","owner":"153237179@N02","secret":"b68eed5b74","server":"65535","farm":66,"title":"SIGHTING orange & white cat in #temple. Pls rt, share, watch, help This cat has been hanging around my house for awhile I have taken him into the vet and he was returned to his owners. He now has been out side day and night for 4 days straight , I can\u2019t l","ispublic":1,"isfriend":0,"isfamily":0},{"id":"51941653084","owner":"153237179@N02","secret":"bbe4b98caf","server":"65535","farm":66,"title":"LOST grey w\/black stripes tabby cat #Woodlands Contact 403-399-6426 if sighted\/found Pls RT, watch, share, help to locate CHLOE Photos from Tanya Lynn Harris's postvpdescription by Photos from Tanya Lynn Harris's post LOST grey w\/black stripes tabby cat #","ispublic":1,"isfriend":0,"isfamily":0},{"id":"51941947050","owner":"153237179@N02","secret":"476f3e19c2","server":"65535","farm":66,"title":"LOST orange & white cat in #uppermountroyal since March 14\/22. Call\/text Rhianna 250-417-5507. Pls rt watch share help to find BENNY! Photos from Rhianna Cochrane Embury's postvpdescription by Photos from Rhianna Cochrane Embury's post LOST orange & white","ispublic":1,"isfriend":0,"isfamily":0},{"id":"51941947000","owner":"153237179@N02","secret":"1d91ed65cd","server":"65535","farm":66,"title":"SIGHTING dsh grey seal point type cat\/kitten in #Taradale Pls rt, watch and share for owner awareness. Photos from Nacalla Hird's postvpdescription by Photos from Nacalla Hird's post SIGHTING dsh grey seal point type cat\/kitten in #Taradale Pls rt, watch","ispublic":1,"isfriend":0,"isfamily":0},{"id":"51941652959","owner":"153237179@N02","secret":"67a1e949c6","server":"65535","farm":66,"title":"FOUND dlh orange\/brown calico cat w\/white paws\/chest in #Banfftrail Now at VCA Canada Calgary North Animal Hosp, 4204 4 St NW, 403-277-0135. If claiming must bring picture id & proof of ownership. Pls rt, share, help find family FOUND in Banff Trail long-","ispublic":1,"isfriend":0,"isfamily":0},{"id":"51941413973","owner":"153237179@N02","secret":"59b037524f","server":"65535","farm":66,"title":"LOST senior dmh tabby cat Lost in #Dover call\/txt 306-570-9117 Pls rt, watch and share, help find Meggie. Lost in Dover she\u2019s very old she got out last night and she hasn\u2019t come home if spotted please call or text 306-570-9117 thanks Lost in Dover she\u2019s v","ispublic":1,"isfriend":0,"isfamily":0},{"id":"51941652854","owner":"153237179@N02","secret":"dc9d4dd052","server":"65535","farm":66,"title":"LOST dmh orange\/ginger cat in #Kingsland msg Arthur if seen\/found. Pls rt, watch and share, help find Garry. LOST CAT (Ginger\/Gold) (Big & Fluffy)(Green Eyes) The cats name is Garry and was last seen wandering around Kingsmere Crescent area. Please share","ispublic":1,"isfriend":0,"isfamily":0},{"id":"51941320991","owner":"190629554@N02","secret":"e848d3a687","server":"65535","farm":66,"title":"Genshin Impact: C\u1ed1t truy\u1ec7n V\u1ef1c \u0110\u00e1 S\u00e2u s\u1eafp t\u1edbi s\u1ebd h\u00e9 l\u1ed9 th\u00eam v\u1ec1 \u0110\u1ea3o Thi\u00ean Kh\u00f4ng v\u00e0 tr\u1eadn chi\u1ebfn Ma Th\u1ea7n","ispublic":1,"isfriend":0,"isfamily":0},{"id":"51941645999","owner":"195141100@N08","secret":"2103d79e69","server":"65535","farm":66,"title":"PELUANG KERJA ONLINE, WA 0812-3487-6032, Posting Produk Skincare Hasilkan Puluhan Juta","ispublic":1,"isfriend":0,"isfamily":0},{"id":"51940331357","owner":"192760658@N02","secret":"085554fe67","server":"65535","farm":66,"title":"Help, I\u2019ve been catnapped! #cats #catsofinstagram #cutecats #catstagram #bengalcat #catlover #instacat #instapet #CatLovesBest","ispublic":1,"isfriend":0,"isfamily":0},{"id":"51941321346","owner":"193485697@N05","secret":"49581b542c","server":"65535","farm":66,"title":"Plusha at Home","ispublic":1,"isfriend":0,"isfamily":0},{"id":"51941404198","owner":"193485697@N05","secret":"d6d86aaeff","server":"65535","farm":66,"title":"Deli","ispublic":1,"isfriend":0,"isfamily":0},{"id":"51941300326","owner":"24424693@N03","secret":"3dc8f82c64","server":"65535","farm":66,"title":"Cats by Tip Top Productions (16-19\/03\/22)","ispublic":1,"isfriend":0,"isfamily":0},{"id":"51941621869","owner":"24424693@N03","secret":"0235e87dcb","server":"65535","farm":66,"title":"Cats by Tip Top Productions (16-19\/03\/22)","ispublic":1,"isfriend":0,"isfamily":0},{"id":"51940309102","owner":"24424693@N03","secret":"ed9ec3a225","server":"65535","farm":66,"title":"Cats by Tip Top Productions (16-19\/03\/22)","ispublic":1,"isfriend":0,"isfamily":0},{"id":"51941915405","owner":"24424693@N03","secret":"ccc725bd83","server":"65535","farm":66,"title":"Cats by Tip Top Productions (16-19\/03\/22)","ispublic":1,"isfriend":0,"isfamily":0},{"id":"51941382048","owner":"24424693@N03","secret":"139c7438dd","server":"65535","farm":66,"title":"Cats by Tip Top Productions (16-19\/03\/22)","ispublic":1,"isfriend":0,"isfamily":0},{"id":"51940308837","owner":"24424693@N03","secret":"b985ea5c84","server":"65535","farm":66,"title":"Cats by Tip Top Productions (16-19\/03\/22)","ispublic":1,"isfriend":0,"isfamily":0},{"id":"51941915160","owner":"24424693@N03","secret":"8f1d7f9730","server":"65535","farm":66,"title":"Cats by Tip Top Productions (16-19\/03\/22)","ispublic":1,"isfriend":0,"isfamily":0},{"id":"51941381823","owner":"24424693@N03","secret":"878a85d02e","server":"65535","farm":66,"title":"Cats by Tip Top Productions (16-19\/03\/22)","ispublic":1,"isfriend":0,"isfamily":0},{"id":"51941621304","owner":"24424693@N03","secret":"1870cc5d78","server":"65535","farm":66,"title":"Cats by Tip Top Productions (16-19\/03\/22)","ispublic":1,"isfriend":0,"isfamily":0},{"id":"51941299516","owner":"24424693@N03","secret":"00d33301ac","server":"65535","farm":66,"title":"Cats by Tip Top Productions (16-19\/03\/22)","ispublic":1,"isfriend":0,"isfamily":0},{"id":"51941914855","owner":"24424693@N03","secret":"2e6ee806bc","server":"65535","farm":66,"title":"Cats by Tip Top Productions (16-19\/03\/22)","ispublic":1,"isfriend":0,"isfamily":0},{"id":"51941299371","owner":"24424693@N03","secret":"76e0e890fc","server":"65535","farm":66,"title":"Cats by Tip Top Productions (16-19\/03\/22)","ispublic":1,"isfriend":0,"isfamily":0},{"id":"51940308302","owner":"24424693@N03","secret":"c58a3a3835","server":"65535","farm":66,"title":"Cats by Tip Top Productions (16-19\/03\/22)","ispublic":1,"isfriend":0,"isfamily":0},{"id":"51940308227","owner":"24424693@N03","secret":"e2681797d5","server":"65535","farm":66,"title":"Cats by Tip Top Productions (16-19\/03\/22)","ispublic":1,"isfriend":0,"isfamily":0},{"id":"51941620944","owner":"24424693@N03","secret":"902b4710bd","server":"65535","farm":66,"title":"Cats by Tip Top Productions (16-19\/03\/22)","ispublic":1,"isfriend":0,"isfamily":0},{"id":"51940308082","owner":"24424693@N03","secret":"ff05c72cef","server":"65535","farm":66,"title":"Cats by Tip Top Productions (16-19\/03\/22)","ispublic":1,"isfriend":0,"isfamily":0},{"id":"51941620784","owner":"24424693@N03","secret":"c7686d06e8","server":"65535","farm":66,"title":"Cats by Tip Top Productions (16-19\/03\/22)","ispublic":1,"isfriend":0,"isfamily":0},{"id":"51941298706","owner":"24424693@N03","secret":"24dd47428b","server":"65535","farm":66,"title":"Cats by Tip Top Productions (16-19\/03\/22)","ispublic":1,"isfriend":0,"isfamily":0},{"id":"51941620494","owner":"24424693@N03","secret":"c06b877d76","server":"65535","farm":66,"title":"Cats by Tip Top Productions (16-19\/03\/22)","ispublic":1,"isfriend":0,"isfamily":0},{"id":"51940307627","owner":"24424693@N03","secret":"ea024db8e7","server":"65535","farm":66,"title":"Cats by Tip Top Productions (16-19\/03\/22)","ispublic":1,"isfriend":0,"isfamily":0},{"id":"51941620319","owner":"24424693@N03","secret":"9af5083a62","server":"65535","farm":66,"title":"Cats by Tip Top Productions (16-19\/03\/22)","ispublic":1,"isfriend":0,"isfamily":0},{"id":"51941913625","owner":"24424693@N03","secret":"8694e66780","server":"65535","farm":66,"title":"Cats by Tip Top Productions (16-19\/03\/22)","ispublic":1,"isfriend":0,"isfamily":0},{"id":"51940307267","owner":"24424693@N03","secret":"9926cb24bc","server":"65535","farm":66,"title":"Cats by Tip Top Productions (16-19\/03\/22)","ispublic":1,"isfriend":0,"isfamily":0},{"id":"51941913500","owner":"24424693@N03","secret":"154bab7d55","server":"65535","farm":66,"title":"Cats by Tip Top Productions (16-19\/03\/22)","ispublic":1,"isfriend":0,"isfamily":0},{"id":"51941913430","owner":"24424693@N03","secret":"4cb8f26553","server":"65535","farm":66,"title":"Cats by Tip Top Productions (16-19\/03\/22)","ispublic":1,"isfriend":0,"isfamily":0},{"id":"51941619814","owner":"24424693@N03","secret":"b777295aa9","server":"65535","farm":66,"title":"Cats by Tip Top Productions (16-19\/03\/22)","ispublic":1,"isfriend":0,"isfamily":0},{"id":"51941380183","owner":"24424693@N03","secret":"845d70d785","server":"65535","farm":66,"title":"Cats by Tip Top Productions (16-19\/03\/22)","ispublic":1,"isfriend":0,"isfamily":0},{"id":"51941297746","owner":"24424693@N03","secret":"1117e42868","server":"65535","farm":66,"title":"Cats by Tip Top Productions (16-19\/03\/22)","ispublic":1,"isfriend":0,"isfamily":0},{"id":"51941380028","owner":"24424693@N03","secret":"9008f7cff3","server":"65535","farm":66,"title":"Cats by Tip Top Productions (16-19\/03\/22)","ispublic":1,"isfriend":0,"isfamily":0},{"id":"51941912995","owner":"24424693@N03","secret":"d16657717f","server":"65535","farm":66,"title":"Cats by Tip Top Productions (16-19\/03\/22)","ispublic":1,"isfriend":0,"isfamily":0},{"id":"51940314872","owner":"24424693@N03","secret":"9a52edb136","server":"65535","farm":66,"title":"Cats by Tip Top Productions (16-19\/03\/22)","ispublic":1,"isfriend":0,"isfamily":0}]},"stat":"ok"}
